agamegold
agamegold.com
asshole
asshole
assole
assole
bastard
bastard
bollocks
bollocks
bstard
bstard
bstrd
bstrd
cgs711
cgs711
cgs711.com
cgs711.com
cunt
cunt
dick
dick
fck
fck
fcuk
fcuk
firang
firang
firangi
firangi
fuck
FUCK
fuck
G a m e I m
g a m e i m
g a m e i m
G a m e I m
gameim
GameIm
gameim
Gameim
Gameim
GameIm
i  g  a  m  e  t  r  a  d  e
i  g  a  m  e  t  r  a  d  e
i G a m e T r a d e
i g a m e t r a d e
i g a m e t r a d e
i G a m e T r a d e
i_g_a_m_e_t_r_a_d_e
i_g_a_m_e_t_r_a_d_e
igametrade
iGameTrade
iGameTrade
igametrade
iGameTrade
iGameTrade
mmocoo
mmocoo
mmocool
mmocool
mmocool.com
mmocool.com
mocool
mocool
mofo
mofo
n o s t a l e g o l d
N o s t a l e g o l d
N o s t a l e G o l d
n o s t a l e g o l d
N o s t a l e G o l d
N o s t a l e g o l d
nigga
nigga
nigger
nigger
Nostalegold
nostalegold
NostaleGold
Nostalegold
NostaleGold
nostalegold
Nostalegold.
Nostalegold.
rape
rape
retard
retard
shit
shit
suck
suck
suk
suk
sux
sux
whore
whore
www.agamegold.com
www.cgs711.com
www.cgs711.com
www.mmocool.com
www.mmocool.com
